[
  {
    "subscribers": [],
    "subscribed": null,
    "creator": null,
    "artists": null,
    "tracks": null,
    "updateFrequency": "刚刚更新",
    "backgroundCoverId": 0,
    "backgroundCoverUrl": null,
    "titleImage": 0,
    "coverText": null,
    "titleImageUrl": null,
    "coverImageUrl": null,
    "iconImageUrl": null,
    "englishTitle": null,
    "opRecommend": false,
    "recommendInfo": null,
    "socialPlaylistCover": null,
    "tsSongCount": 0,
    "cloudTrackCount": 0,
    "subscribedCount": 4099298,
    "adType": 0,
    "trackNumberUpdateTime": 1708474350621,
    "highQuality": false,
    "specialType": 10,
    "coverImgId": 109951166952713760,
    "updateTime": 1708474353726,
    "anonimous": false,
    "newImported": false,
    "trackCount": 99,
    "coverImgUrl": "https://p2.music.126.net/pcYHpMkdC69VVvWiynNklA==/109951166952713766.jpg",
    "commentThreadId": "A_PL_0_19723756",
    "trackUpdateTime": 1708496693477,
    "totalDuration": 0,
    "privacy": 0,
    "playCount": 5830694400,
    "createTime": 1404115136883,
    "ordered": true,
    "description": "云音乐中每天热度上升最快的100首单曲，每日更新。",
    "status": 0,
    "tags": [],
    "userId": 1,
    "name": "飙升榜",
    "id": 19723756,
    "coverImgId_str": "109951166952713766",
    "ToplistType": "S"
  },
  {
    "subscribers": [],
    "subscribed": null,
    "creator": null,
    "artists": null,
    "tracks": null,
    "updateFrequency": "更新14首",
    "backgroundCoverId": 0,
    "backgroundCoverUrl": null,
    "titleImage": 0,
    "coverText": null,
    "titleImageUrl": null,
    "coverImageUrl": null,
    "iconImageUrl": null,
    "englishTitle": null,
    "opRecommend": false,
    "recommendInfo": null,
    "socialPlaylistCover": null,
    "tsSongCount": 0,
    "cloudTrackCount": 0,
    "subscribedCount": 2766294,
    "adType": 0,
    "trackNumberUpdateTime": 1708473716548,
    "highQuality": false,
    "specialType": 10,
    "coverImgId": 109951166952686380,
    "updateTime": 1708473716697,
    "anonimous": false,
    "newImported": false,
    "trackCount": 100,
    "coverImgUrl": "https://p2.music.126.net/wVmyNS6b_0Nn-y6AX8UbpQ==/109951166952686384.jpg",
    "commentThreadId": "A_PL_0_3779629",
    "trackUpdateTime": 1708497186422,
    "totalDuration": 0,
    "privacy": 0,
    "playCount": 2937278976,
    "createTime": 1378721398225,
    "ordered": true,
    "description": "云音乐新歌榜：云音乐用户一周内收听所有新歌（一月内最新发行） 官方TOP排行榜，每天更新。",
    "status": 0,
    "tags": [],
    "userId": 1,
    "name": "新歌榜",
    "id": 3779629,
    "coverImgId_str": "109951166952686384",
    "ToplistType": "N"
  },
  {
    "subscribers": [],
    "subscribed": null,
    "creator": null,
    "artists": null,
    "tracks": null,
    "updateFrequency": "每周四更新",
    "backgroundCoverId": 0,
    "backgroundCoverUrl": null,
    "titleImage": 0,
    "coverText": null,
    "titleImageUrl": null,
    "coverImageUrl": null,
    "iconImageUrl": null,
    "englishTitle": null,
    "opRecommend": false,
    "recommendInfo": null,
    "socialPlaylistCover": null,
    "tsSongCount": 0,
    "cloudTrackCount": 0,
    "subscribedCount": 715950,
    "adType": 0,
    "trackNumberUpdateTime": 1708001308142,
    "highQuality": false,
    "specialType": 10,
    "coverImgId": 109951166961388700,
    "updateTime": 1708001308356,
    "anonimous": false,
    "newImported": false,
    "trackCount": 100,
    "coverImgUrl": "https://p2.music.126.net/iFZ_nw2V86IFk90dc50kdQ==/109951166961388699.jpg",
    "commentThreadId": "A_PL_0_2884035",
    "trackUpdateTime": 1708445829867,
    "totalDuration": 0,
    "privacy": 0,
    "playCount": 579248960,
    "createTime": 1374732325894,
    "ordered": true,
    "description": "云音乐独立原创音乐人作品官方榜单，以推荐优秀原创作品为目的。每周四网易云音乐首发。申请网易音乐人：http://music.163.com/nmusician/",
    "status": 0,
    "tags": [],
    "userId": 201586,
    "name": "原创榜",
    "id": 2884035,
    "coverImgId_str": "109951166961388699",
    "ToplistType": "O"
  },
  {
    "subscribers": [],
    "subscribed": null,
    "creator": null,
    "artists": null,
    "tracks": null,
    "updateFrequency": "刚刚更新",
    "backgroundCoverId": 0,
    "backgroundCoverUrl": null,
    "titleImage": 0,
    "coverText": null,
    "titleImageUrl": null,
    "coverImageUrl": null,
    "iconImageUrl": null,
    "englishTitle": null,
    "opRecommend": false,
    "recommendInfo": null,
    "socialPlaylistCover": null,
    "tsSongCount": 0,
    "cloudTrackCount": 0,
    "subscribedCount": 12019689,
    "adType": 0,
    "trackNumberUpdateTime": 1708474487644,
    "highQuality": false,
    "specialType": 10,
    "coverImgId": 109951166952706660,
    "updateTime": 1708474490874,
    "anonimous": false,
    "newImported": false,
    "trackCount": 200,
    "coverImgUrl": "https://p2.music.126.net/ZyUjc7K_GDpD8MO1-GQkmA==/109951166952706664.jpg",
    "commentThreadId": "A_PL_0_3778678",
    "trackUpdateTime": 1708474490857,
    "totalDuration": 0,
    "privacy": 0,
    "playCount": 12029540352,
    "createTime": 1378721406014,
    "ordered": true,
    "description": "云音乐热歌榜：云音乐用户一周内收听所有线上歌曲官方TOP排行榜，每日更新。",
    "status": 0,
    "tags": [],
    "userId": 1,
    "name": "热歌榜",
    "id": 3778678,
    "coverImgId_str": "109951166952706664",
    "ToplistType": "H"
  },
  {
    "subscribers": [],
    "subscribed": null,
    "creator": null,
    "artists": null,
    "tracks": null,
    "updateFrequency": "每周五更新",
    "backgroundCoverId": 0,
    "backgroundCoverUrl": null,
    "titleImage": 0,
    "coverText": null,
    "titleImageUrl": null,
    "coverImageUrl": null,
    "iconImageUrl": null,
    "englishTitle": null,
    "opRecommend": false,
    "recommendInfo": null,
    "socialPlaylistCover": null,
    "tsSongCount": 0,
    "cloudTrackCount": 0,
    "subscribedCount": 773237,
    "adType": 0,
    "trackNumberUpdateTime": 1708053928654,
    "highQuality": false,
    "specialType": 10,
    "coverImgId": 109951167976981060,
    "updateTime": 1708053928766,
    "anonimous": false,
    "newImported": false,
    "trackCount": 50,
    "coverImgUrl": "https://p2.music.126.net/xNnQzUODQs50SJ2Sm4IVVA==/109951167976981051.jpg",
    "commentThreadId": "A_PL_0_991319590",
    "trackUpdateTime": 1708053928758,
    "totalDuration": 0,
    "privacy": 0,
    "playCount": 451733248,
    "createTime": 1510290389440,
    "ordered": true,
    "description": "云音乐原创说唱音乐人作品官方榜单，每周五更新。以云音乐用户一周播放热度为主，收录3个月内发行的原创说唱作品，按照综合数据排名取前50名。申请网易音乐人：http://music.163.com/nmusician",
    "status": 0,
    "tags": [
      "华语",
      "说唱"
    ],
    "userId": 1,
    "name": "云音乐说唱榜",
    "id": 991319590,
    "coverImgId_str": "109951167976981051"
  },
  {
    "subscribers": [],
    "subscribed": null,
    "creator": null,
    "artists": null,
    "tracks": null,
    "updateFrequency": "每周四更新",
    "backgroundCoverId": 0,
    "backgroundCoverUrl": null,
    "titleImage": 0,
    "coverText": null,
    "titleImageUrl": null,
    "coverImageUrl": null,
    "iconImageUrl": null,
    "englishTitle": null,
    "opRecommend": false,
    "recommendInfo": null,
    "socialPlaylistCover": null,
    "tsSongCount": 0,
    "cloudTrackCount": 0,
    "subscribedCount": 436595,
    "adType": 0,
    "trackNumberUpdateTime": 1707969607329,
    "highQuality": false,
    "specialType": 10,
    "coverImgId": 109951167976973230,
    "updateTime": 1707971184761,
    "anonimous": false,
    "newImported": false,
    "trackCount": 100,
    "coverImgUrl": "https://p1.music.126.net/urByD_AmfBDBrs7fA9-O8A==/109951167976973225.jpg",
    "commentThreadId": "A_PL_0_71384707",
    "trackUpdateTime": 1708099837058,
    "totalDuration": 0,
    "privacy": 0,
    "playCount": 70298960,
    "createTime": 1430968920537,
    "ordered": true,
    "description": "云音乐用户一周内收听所有古典音乐官方TOP排行榜，每周四更新。",
    "status": 0,
    "tags": [
      "古典"
    ],
    "userId": 1,
    "name": "云音乐古典榜",
    "id": 71384707,
    "coverImgId_str": "109951167976973225"
  },
  {
    "subscribers": [],
    "subscribed": null,
    "creator": null,
    "artists": null,
    "tracks": null,
    "updateFrequency": "每周五更新",
    "backgroundCoverId": 0,
    "backgroundCoverUrl": null,
    "titleImage": 0,
    "coverText": null,
    "titleImageUrl": null,
    "coverImageUrl": null,
    "iconImageUrl": null,
    "englishTitle": null,
    "opRecommend": false,
    "recommendInfo": null,
    "socialPlaylistCover": null,
    "tsSongCount": 0,
    "cloudTrackCount": 0,
    "subscribedCount": 1306493,
    "adType": 0,
    "trackNumberUpdateTime": 1708085289996,
    "highQuality": false,
    "specialType": 10,
    "coverImgId": 109951168204710930,
    "updateTime": 1708085290075,
    "anonimous": false,
    "newImported": false,
    "trackCount": 49,
    "coverImgUrl": "https://p1.music.126.net/lH6L0YhKTofSmnrEAtN9CA==/109951168204710928.jpg",
    "commentThreadId": "A_PL_0_1978921795",
    "trackUpdateTime": 1708420628494,
    "totalDuration": 0,
    "privacy": 0,
    "playCount": 380564704,
    "createTime": 1510825632233,
    "ordered": true,
    "description": "云音乐用户一周内收听电子音乐官方TOP排行榜，每周五更新。喜力星电音，用先锋电音带你解锁全新维度和体验！",
    "status": 0,
    "tags": [
      "电子"
    ],
    "userId": 1,
    "name": "云音乐电音榜",
    "id": 1978921795,
    "coverImgId_str": "109951168204710928"
  },
  {
    "subscribers": [],
    "subscribed": null,
    "creator": null,
    "artists": null,
    "tracks": null,
    "updateFrequency": "每周四更新",
    "backgroundCoverId": 0,
    "backgroundCoverUrl": null,
    "titleImage": 0,
    "coverText": null,
    "titleImageUrl": null,
    "coverImageUrl": null,
    "iconImageUrl": null,
    "englishTitle": null,
    "opRecommend": false,
    "recommendInfo": null,
    "socialPlaylistCover": null,
    "tsSongCount": 0,
    "cloudTrackCount": 0,
    "subscribedCount": 1078583,
    "adType": 0,
    "trackNumberUpdateTime": 1707991203200,
    "highQuality": false,
    "specialType": 10,
    "coverImgId": 109951168772698740,
    "updateTime": 1707991203386,
    "anonimous": false,
    "newImported": false,
    "trackCount": 100,
    "coverImgUrl": "https://p1.music.126.net/a_ekv5grIMqtuJefHVxfxA==/109951168772698738.jpg",
    "commentThreadId": "A_PL_0_5453912201",
    "trackUpdateTime": 1708482376595,
    "totalDuration": 0,
    "privacy": 0,
    "playCount": 220524112,
    "createTime": 1610087424470,
    "ordered": true,
    "description": "云音乐站内会员播放热度TOP100的歌曲，每周四更新。\n黑胶们都爱听什么歌曲？\n热门好歌一站式收听，让你念念不忘~\n做尊贵黑胶，畅听品味好歌~",
    "status": 0,
    "tags": [
      "榜单"
    ],
    "userId": 1452176465,
    "name": "黑胶VIP爱听榜",
    "id": 5453912201,
    "coverImgId_str": "109951168772698738"
  },
  {
    "subscribers": [],
    "subscribed": null,
    "creator": null,
    "artists": null,
    "tracks": null,
    "updateFrequency": "每周四更新",
    "backgroundCoverId": 0,
    "backgroundCoverUrl": null,
    "titleImage": 0,
    "coverText": null,
    "titleImageUrl": null,
    "coverImageUrl": null,
    "iconImageUrl": null,
    "englishTitle": null,
    "opRecommend": false,
    "recommendInfo": null,
    "socialPlaylistCover": null,
    "tsSongCount": 0,
    "cloudTrackCount": 0,
    "subscribedCount": 243831,
    "adType": 0,
    "trackNumberUpdateTime": 1707969605817,
    "highQuality": false,
    "specialType": 10,
    "coverImgId": 109951167976973660,
    "updateTime": 1707971746300,
    "anonimous": false,
    "newImported": false,
    "trackCount": 100,
    "coverImgUrl": "https://p1.music.126.net/na1kEeCS1iZEkzOrs9r_9g==/109951167976973667.jpg",
    "commentThreadId": "A_PL_0_71385702",
    "trackUpdateTime": 1708483665814,
    "totalDuration": 0,
    "privacy": 0,
    "playCount": 82171800,
    "createTime": 1430968935040,
    "ordered": true,
    "description": "云音乐用户一周内收听所有ACG音乐官方TOP排行榜，每周四更新。",
    "status": 0,
    "tags": [],
    "userId": 1,
    "name": "云音乐ACG榜",
    "id": 71385702,
    "coverImgId_str": "109951167976973667"
  },
  {
    "subscribers": [],
    "subscribed": null,
    "creator": null,
    "artists": null,
    "tracks": null,
    "updateFrequency": "每周四更新",
    "backgroundCoverId": 0,
    "backgroundCoverUrl": null,
    "titleImage": 0,
    "coverText": null,
    "titleImageUrl": null,
    "coverImageUrl": null,
    "iconImageUrl": null,
    "englishTitle": null,
    "opRecommend": false,
    "recommendInfo": null,
    "socialPlaylistCover": null,
    "tsSongCount": 0,
    "cloudTrackCount": 0,
    "subscribedCount": 241267,
    "adType": 0,
    "trackNumberUpdateTime": 1707969603749,
    "highQuality": false,
    "specialType": 10,
    "coverImgId": 109951167430864740,
    "updateTime": 1707969603922,
    "anonimous": false,
    "newImported": false,
    "trackCount": 100,
    "coverImgUrl": "https://p1.music.126.net/5oN9YaFznwNGXkmi8i2Ytw==/109951167430864741.jpg",
    "commentThreadId": "A_PL_0_745956260",
    "trackUpdateTime": 1708474508765,
    "totalDuration": 0,
    "privacy": 0,
    "playCount": 111707152,
    "createTime": 1496201691281,
    "ordered": true,
    "description": "云音乐用户一周内收听所有韩语歌曲官方TOP排行榜，每周四更新。",
    "status": 0,
    "tags": [
      "韩语",
      "榜单"
    ],
    "userId": 1,
    "name": "云音乐韩语榜",
    "id": 745956260,
    "coverImgId_str": "109951167430864741"
  },
  {
    "subscribers": [],
    "subscribed": null,
    "creator": null,
    "artists": null,
    "tracks": null,
    "updateFrequency": "每周五更新",
    "backgroundCoverId": 0,
    "backgroundCoverUrl": null,
    "titleImage": 0,
    "coverText": null,
    "titleImageUrl": null,
    "coverImageUrl": null,
    "iconImageUrl": null,
    "englishTitle": null,
    "opRecommend": false,
    "recommendInfo": null,
    "socialPlaylistCover": null,
    "tsSongCount": 0,
    "cloudTrackCount": 0,
    "subscribedCount": 232739,
    "adType": 0,
    "trackNumberUpdateTime": 1706866472792,
    "highQuality": false,
    "specialType": 10,
    "coverImgId": 109951165611482700,
    "updateTime": 1706866472853,
    "anonimous": false,
    "newImported": false,
    "trackCount": 20,
    "coverImgUrl": "https://p1.music.126.net/6la5fQwcd3YW6ZQHvTiZqw==/109951165611482698.jpg",
    "commentThreadId": "A_PL_0_10520166",
    "trackUpdateTime": 1706866472849,
    "totalDuration": 0,
    "privacy": 0,
    "playCount": 93664760,
    "createTime": 1395988377813,
    "ordered": true,
    "description": "【本榜排名按作品发行时间顺序】网易云音乐联合网易放刺、Loopy、加菲众、DJ WENGWENG（灯笼Club）、3ASiC（同步计划）、DJ Senders（沉睡电台）、East Records（华音尚韵）、电悦台（EDM Station） \n打造云音乐“国电榜” ! 每周五为大家带来网易电子音乐人优质新作！",
    "status": 0,
    "tags": [
      "电子",
      "榜单"
    ],
    "userId": 48102,
    "name": "云音乐国电榜",
    "id": 10520166,
    "coverImgId_str": "109951165611482698"
  },
  {
    "subscribers": [],
    "subscribed": null,
    "creator": null,
    "artists": null,
    "tracks": null,
    "updateFrequency": "每周一更新",
    "backgroundCoverId": 0,
    "backgroundCoverUrl": null,
    "titleImage": 0,
    "coverText": null,
    "titleImageUrl": null,
    "coverImageUrl": null,
    "iconImageUrl": null,
    "englishTitle": null,
    "opRecommend": false,
    "recommendInfo": null,
    "socialPlaylistCover": null,
    "tsSongCount": 0,
    "cloudTrackCount": 0,
    "subscribedCount": 290276,
    "adType": 0,
    "trackNumberUpdateTime": 1708338340912,
    "highQuality": false,
    "specialType": 10,
    "coverImgId": 109951165613082770,
    "updateTime": 1708338341034,
    "anonimous": false,
    "newImported": false,
    "trackCount": 82,
    "coverImgUrl": "https://p1.music.126.net/fhAqiflLy3eU-ldmBQByrg==/109951165613082765.jpg",
    "commentThreadId": "A_PL_0_180106",
    "trackUpdateTime": 1708338341027,
    "totalDuration": 0,
    "privacy": 0,
    "playCount": 148398720,
    "createTime": 1361239766844,
    "ordered": true,
    "description": "UK排行榜",
    "status": 0,
    "tags": [
      "榜单",
      "欧美"
    ],
    "userId": 48333,
    "name": "UK排行榜周榜",
    "id": 180106,
    "coverImgId_str": "109951165613082765"
  },
  {
    "subscribers": [],
    "subscribed": null,
    "creator": null,
    "artists": null,
    "tracks": null,
    "updateFrequency": "每周三更新",
    "backgroundCoverId": 0,
    "backgroundCoverUrl": null,
    "titleImage": 0,
    "coverText": null,
    "titleImageUrl": null,
    "coverImageUrl": null,
    "iconImageUrl": null,
    "englishTitle": null,
    "opRecommend": false,
    "recommendInfo": null,
    "socialPlaylistCover": null,
    "tsSongCount": 0,
    "cloudTrackCount": 0,
    "subscribedCount": 1326234,
    "adType": 0,
    "trackNumberUpdateTime": 1707299275437,
    "highQuality": false,
    "specialType": 10,
    "coverImgId": 109951165611413730,
    "updateTime": 1707299275568,
    "anonimous": false,
    "newImported": false,
    "trackCount": 90,
    "coverImgUrl": "https://p1.music.126.net/rwRsVIJHQ68gglhA6TNEYA==/109951165611413732.jpg",
    "commentThreadId": "A_PL_0_60198",
    "trackUpdateTime": 1708339748015,
    "totalDuration": 0,
    "privacy": 0,
    "playCount": 619550336,
    "createTime": 1358823076818,
    "ordered": true,
    "description": "美国Billboard排行榜",
    "status": 0,
    "tags": [
      "流行",
      "欧美",
      "榜单"
    ],
    "userId": 48171,
    "name": "美国Billboard榜",
    "id": 60198,
    "coverImgId_str": "109951165611413732"
  },
  {
    "subscribers": [],
    "subscribed": null,
    "creator": null,
    "artists": null,
    "tracks": null,
    "updateFrequency": "更新34首",
    "backgroundCoverId": 0,
    "backgroundCoverUrl": null,
    "titleImage": 0,
    "coverText": null,
    "titleImageUrl": null,
    "coverImageUrl": null,
    "iconImageUrl": null,
    "englishTitle": null,
    "opRecommend": false,
    "recommendInfo": null,
    "socialPlaylistCover": null,
    "tsSongCount": 0,
    "cloudTrackCount": 0,
    "subscribedCount": 278242,
    "adType": 0,
    "trackNumberUpdateTime": 1708482988662,
    "highQuality": false,
    "specialType": 10,
    "coverImgId": 109951166093489620,
    "updateTime": 1708482988806,
    "anonimous": false,
    "newImported": false,
    "trackCount": 91,
    "coverImgUrl": "https://p1.music.126.net/oT-RHuPBJiD7WMoU7WG5Rw==/109951166093489621.jpg",
    "commentThreadId": "A_PL_0_3812895",
    "trackUpdateTime": 1708498898996,
    "totalDuration": 0,
    "privacy": 0,
    "playCount": 101486824,
    "createTime": 1378886589466,
    "ordered": true,
    "description": "Beatport全球电子舞曲排行榜TOP100（本榜每周三更新）",
    "status": 0,
    "tags": [
      "欧美",
      "电子",
      "榜单"
    ],
    "userId": 1589393,
    "name": "Beatport全球电子舞曲榜",
    "id": 3812895,
    "coverImgId_str": "109951166093489621"
  },
  {
    "subscribers": [],
    "subscribed": null,
    "creator": null,
    "artists": null,
    "tracks": null,
    "updateFrequency": "每周五更新",
    "backgroundCoverId": 0,
    "backgroundCoverUrl": null,
    "titleImage": 0,
    "coverText": null,
    "titleImageUrl": null,
    "coverImageUrl": null,
    "iconImageUrl": null,
    "englishTitle": null,
    "opRecommend": false,
    "recommendInfo": null,
    "socialPlaylistCover": null,
    "tsSongCount": 0,
    "cloudTrackCount": 0,
    "subscribedCount": 251637,
    "adType": 0,
    "trackNumberUpdateTime": 1596793320079,
    "highQuality": false,
    "specialType": 10,
    "coverImgId": 109951165613100060,
    "updateTime": 1637920603975,
    "anonimous": false,
    "newImported": false,
    "trackCount": 11,
    "coverImgUrl": "https://p1.music.126.net/5wDP78s43ydVTKt62C8OjQ==/109951165613100063.jpg",
    "commentThreadId": "A_PL_0_21845217",
    "trackUpdateTime": 1705398576815,
    "totalDuration": 0,
    "privacy": 0,
    "playCount": 72018616,
    "createTime": 1405653093230,
    "ordered": true,
    "description": "KTV唛榜是目前国内首个以全国超过200家KTV点歌平台真实数据的当红歌曲榜单。所涉及的KTV店铺覆盖全国近100多个城市，囊括一、二、三线各级城市及地区。在综合全国各地KTV点唱数据的前提下进行汇总与统计。为了保证信息的及时性，唛榜每周五更新。提供给K迷们最新和最准确的数据。",
    "status": 0,
    "tags": [
      "华语",
      "KTV",
      "榜单"
    ],
    "userId": 30728956,
    "name": "KTV唛榜",
    "id": 21845217,
    "coverImgId_str": "109951165613100063"
  },
  {
    "subscribers": [],
    "subscribed": null,
    "creator": null,
    "artists": null,
    "tracks": null,
    "updateFrequency": "更新19首",
    "backgroundCoverId": 0,
    "backgroundCoverUrl": null,
    "titleImage": 0,
    "coverText": null,
    "titleImageUrl": null,
    "coverImageUrl": null,
    "iconImageUrl": null,
    "englishTitle": null,
    "opRecommend": false,
    "recommendInfo": null,
    "socialPlaylistCover": null,
    "tsSongCount": 0,
    "cloudTrackCount": 0,
    "subscribedCount": 158207,
    "adType": 0,
    "trackNumberUpdateTime": 1708482954018,
    "highQuality": false,
    "specialType": 10,
    "coverImgId": 109951165611417800,
    "updateTime": 1708482954114,
    "anonimous": false,
    "newImported": false,
    "trackCount": 20,
    "coverImgUrl": "https://p1.music.126.net/aXUPgImt8hhf4cMUZEjP4g==/109951165611417794.jpg",
    "commentThreadId": "A_PL_0_60131",
    "trackUpdateTime": 1708482954112,
    "totalDuration": 0,
    "privacy": 0,
    "playCount": 64480804,
    "createTime": 1357635084874,
    "ordered": true,
    "description": "日本Oricon数字单曲周榜，每周三更新，欢迎关注。",
    "status": 0,
    "tags": [
      "榜单",
      "日语"
    ],
    "userId": 48160,
    "name": "日本Oricon榜",
    "id": 60131,
    "coverImgId_str": "109951165611417794"
  },
  {
    "subscribers": [],
    "subscribed": null,
    "creator": null,
    "artists": null,
    "tracks": null,
    "updateFrequency": "每周四更新",
    "backgroundCoverId": 0,
    "backgroundCoverUrl": null,
    "titleImage": 0,
    "coverText": null,
    "titleImageUrl": null,
    "coverImageUrl": null,
    "iconImageUrl": null,
    "englishTitle": null,
    "opRecommend": false,
    "recommendInfo": null,
    "socialPlaylistCover": null,
    "tsSongCount": 0,
    "cloudTrackCount": 0,
    "subscribedCount": 759984,
    "adType": 0,
    "trackNumberUpdateTime": 1707963521543,
    "highQuality": false,
    "specialType": 10,
    "coverImgId": 109951167430862160,
    "updateTime": 1707963521617,
    "anonimous": false,
    "newImported": false,
    "trackCount": 200,
    "coverImgUrl": "https://p1.music.126.net/70_EO_Dc7NT_hhfvsapzcQ==/109951167430862162.jpg",
    "commentThreadId": "A_PL_0_2809513713",
    "trackUpdateTime": 1708486009865,
    "totalDuration": 0,
    "privacy": 0,
    "playCount": 204450576,
    "createTime": 1558493373769,
    "ordered": true,
    "description": "云音乐用户一周内收听所有欧美歌曲官方TOP排行榜，每周四更新。\nWestern Hit Chart (updated every Thursday)",
    "status": 0,
    "tags": [],
    "userId": 1,
    "name": "云音乐欧美热歌榜",
    "id": 2809513713,
    "coverImgId_str": "109951167430862162"
  },
  {
    "subscribers": [],
    "subscribed": null,
    "creator": null,
    "artists": null,
    "tracks": null,
    "updateFrequency": "刚刚更新",
    "backgroundCoverId": 0,
    "backgroundCoverUrl": null,
    "titleImage": 0,
    "coverText": null,
    "titleImageUrl": null,
    "coverImageUrl": null,
    "iconImageUrl": null,
    "englishTitle": null,
    "opRecommend": false,
    "recommendInfo": null,
    "socialPlaylistCover": null,
    "tsSongCount": 0,
    "cloudTrackCount": 0,
    "subscribedCount": 192699,
    "adType": 0,
    "trackNumberUpdateTime": 1708483685893,
    "highQuality": false,
    "specialType": 10,
    "coverImgId": 109951167430863230,
    "updateTime": 1708483685952,
    "anonimous": false,
    "newImported": false,
    "trackCount": 100,
    "coverImgUrl": "https://p1.music.126.net/0lPWpI9Ejn1OiW2LSbg-qw==/109951167430863224.jpg",
    "commentThreadId": "A_PL_0_2809577409",
    "trackUpdateTime": 1708483685952,
    "totalDuration": 0,
    "privacy": 0,
    "playCount": 95403264,
    "createTime": 1558493214795,
    "ordered": true,
    "description": "云音乐用户一周内收听所有欧美新歌（一月内最新发行）官方TOP排行榜，每天更新。\nWestern New Release Chart (new songs released in last 30 days, updated daily)\n",
    "status": 0,
    "tags": [],
    "userId": 1,
    "name": "云音乐欧美新歌榜",
    "id": 2809577409,
    "coverImgId_str": "109951167430863224"
  },
  {
    "subscribers": [],
    "subscribed": null,
    "creator": null,
    "artists": null,
    "tracks": null,
    "updateFrequency": "每周五更新",
    "backgroundCoverId": 0,
    "backgroundCoverUrl": null,
    "titleImage": 0,
    "coverText": null,
    "titleImageUrl": null,
    "coverImageUrl": null,
    "iconImageUrl": null,
    "englishTitle": null,
    "opRecommend": false,
    "recommendInfo": null,
    "socialPlaylistCover": null,
    "tsSongCount": 0,
    "cloudTrackCount": 0,
    "subscribedCount": 61006,
    "adType": 0,
    "trackNumberUpdateTime": 1708097008829,
    "highQuality": false,
    "specialType": 10,
    "coverImgId": 109951165613108580,
    "updateTime": 1708097008857,
    "anonimous": false,
    "newImported": false,
    "trackCount": 14,
    "coverImgUrl": "https://p1.music.126.net/-fyzrPWd06FfWl_0JDAxMQ==/109951165613108584.jpg",
    "commentThreadId": "A_PL_0_27135204",
    "trackUpdateTime": 1708097008858,
    "totalDuration": 0,
    "privacy": 0,
    "playCount": 24088404,
    "createTime": 1409825013948,
    "ordered": true,
    "description": "法国NRJ电台（national Radio de Jeunes）成立于1981年，总部位于法国巴黎。是法国最受欢迎的音乐电台和听众最多的广播电台之一。NRJ音乐奖素有法国的“格莱美”之称。此榜单针对NRJ电台法国本土热门歌曲排行。【每周五更新】",
    "status": 0,
    "tags": [
      "榜单"
    ],
    "userId": 5190793,
    "name": "法国 NRJ Vos Hits 周榜",
    "id": 27135204,
    "coverImgId_str": "109951165613108584"
  },
  {
    "subscribers": [],
    "subscribed": null,
    "creator": null,
    "artists": null,
    "tracks": null,
    "updateFrequency": "更新85首",
    "backgroundCoverId": 0,
    "backgroundCoverUrl": null,
    "titleImage": 0,
    "coverText": null,
    "titleImageUrl": null,
    "coverImageUrl": null,
    "iconImageUrl": null,
    "englishTitle": null,
    "opRecommend": false,
    "recommendInfo": null,
    "socialPlaylistCover": null,
    "tsSongCount": 0,
    "cloudTrackCount": 0,
    "subscribedCount": 49241,
    "adType": 0,
    "trackNumberUpdateTime": 1708488011284,
    "highQuality": false,
    "specialType": 10,
    "coverImgId": 109951164432300400,
    "updateTime": 1708488011507,
    "anonimous": false,
    "newImported": false,
    "trackCount": 100,
    "coverImgUrl": "https://p1.music.126.net/SkGlKQ6acixthb77VlD9eQ==/109951164432300406.jpg",
    "commentThreadId": "A_PL_0_3001835560",
    "trackUpdateTime": 1708488011502,
    "totalDuration": 0,
    "privacy": 0,
    "playCount": 5971033,
    "createTime": 1569549838610,
    "ordered": true,
    "description": "云音乐中每天热度上升最快的100首ACG动画单曲，每日更新。",
    "status": 0,
    "tags": [],
    "userId": 1,
    "name": "云音乐ACG动画榜",
    "id": 3001835560,
    "coverImgId_str": "109951164432300406"
  },
  {
    "subscribers": [],
    "subscribed": null,
    "creator": null,
    "artists": null,
    "tracks": null,
    "updateFrequency": "更新92首",
    "backgroundCoverId": 0,
    "backgroundCoverUrl": null,
    "titleImage": 0,
    "coverText": null,
    "titleImageUrl": null,
    "coverImageUrl": null,
    "iconImageUrl": null,
    "englishTitle": null,
    "opRecommend": false,
    "recommendInfo": null,
    "socialPlaylistCover": null,
    "tsSongCount": 0,
    "cloudTrackCount": 0,
    "subscribedCount": 10890,
    "adType": 0,
    "trackNumberUpdateTime": 1708488020987,
    "highQuality": false,
    "specialType": 10,
    "coverImgId": 109951164432303700,
    "updateTime": 1708488021189,
    "anonimous": false,
    "newImported": false,
    "trackCount": 100,
    "coverImgUrl": "https://p1.music.126.net/hivOOHMwEmnn9s_6rgZwEQ==/109951164432303700.jpg",
    "commentThreadId": "A_PL_0_3001795926",
    "trackUpdateTime": 1708488021184,
    "totalDuration": 0,
    "privacy": 0,
    "playCount": 2838053,
    "createTime": 1569549896656,
    "ordered": true,
    "description": "云音乐中每天热度上升最快的100首ACG游戏单曲，每日更新。",
    "status": 0,
    "tags": [],
    "userId": 1,
    "name": "云音乐ACG游戏榜",
    "id": 3001795926,
    "coverImgId_str": "109951164432303700"
  },
  {
    "subscribers": [],
    "subscribed": null,
    "creator": null,
    "artists": null,
    "tracks": null,
    "updateFrequency": "更新90首",
    "backgroundCoverId": 0,
    "backgroundCoverUrl": null,
    "titleImage": 0,
    "coverText": null,
    "titleImageUrl": null,
    "coverImageUrl": null,
    "iconImageUrl": null,
    "englishTitle": null,
    "opRecommend": false,
    "recommendInfo": null,
    "socialPlaylistCover": null,
    "tsSongCount": 0,
    "cloudTrackCount": 0,
    "subscribedCount": 12282,
    "adType": 0,
    "trackNumberUpdateTime": 1708488030627,
    "highQuality": false,
    "specialType": 10,
    "coverImgId": 109951164432303700,
    "updateTime": 1708488030859,
    "anonimous": false,
    "newImported": false,
    "trackCount": 100,
    "coverImgUrl": "https://p1.music.126.net/Ag7RyRCYiINcd9EtRXf6xA==/109951164432303690.jpg",
    "commentThreadId": "A_PL_0_3001890046",
    "trackUpdateTime": 1708488030854,
    "totalDuration": 0,
    "privacy": 0,
    "playCount": 1105310,
    "createTime": 1569549925472,
    "ordered": true,
    "description": null,
    "status": 0,
    "tags": [],
    "userId": 1,
    "name": "云音乐ACG VOCALOID榜",
    "id": 3001890046,
    "coverImgId_str": "109951164432303690"
  },
  {
    "subscribers": [],
    "subscribed": null,
    "creator": null,
    "artists": null,
    "tracks": null,
    "updateFrequency": "每周二更新",
    "backgroundCoverId": 0,
    "backgroundCoverUrl": null,
    "titleImage": 0,
    "coverText": null,
    "titleImageUrl": null,
    "coverImageUrl": null,
    "iconImageUrl": null,
    "englishTitle": null,
    "opRecommend": false,
    "recommendInfo": null,
    "socialPlaylistCover": null,
    "tsSongCount": 0,
    "cloudTrackCount": 0,
    "subscribedCount": 105250,
    "adType": 0,
    "trackNumberUpdateTime": 1708396551937,
    "highQuality": false,
    "specialType": 10,
    "coverImgId": 109951167430864060,
    "updateTime": 1708396552091,
    "anonimous": false,
    "newImported": false,
    "trackCount": 100,
    "coverImgUrl": "https://p1.music.126.net/YFBFNI2F-4BveUpv6FKFuw==/109951167430864069.jpg",
    "commentThreadId": "A_PL_0_5059644681",
    "trackUpdateTime": 1708484832415,
    "totalDuration": 0,
    "privacy": 0,
    "playCount": 33240364,
    "createTime": 1591863000459,
    "ordered": true,
    "description": "云音乐用户一周内收听所有日语歌曲官方TOP排行榜，每周二更新。",
    "status": 0,
    "tags": [],
    "userId": 1,
    "name": "云音乐日语榜",
    "id": 5059644681,
    "coverImgId_str": "109951167430864069"
  },
  {
    "subscribers": [],
    "subscribed": null,
    "creator": null,
    "artists": null,
    "tracks": null,
    "updateFrequency": "每周五更新",
    "backgroundCoverId": 0,
    "backgroundCoverUrl": null,
    "titleImage": 0,
    "coverText": null,
    "titleImageUrl": null,
    "coverImageUrl": null,
    "iconImageUrl": null,
    "englishTitle": null,
    "opRecommend": false,
    "recommendInfo": null,
    "socialPlaylistCover": null,
    "tsSongCount": 0,
    "cloudTrackCount": 0,
    "subscribedCount": 78431,
    "adType": 0,
    "trackNumberUpdateTime": 1708063205353,
    "highQuality": false,
    "specialType": 10,
    "coverImgId": 109951167976981580,
    "updateTime": 1708085310368,
    "anonimous": false,
    "newImported": false,
    "trackCount": 50,
    "coverImgUrl": "https://p1.music.126.net/UsoWOvtgwBgrofCCfS61Fw==/109951167976981586.jpg",
    "commentThreadId": "A_PL_0_5059633707",
    "trackUpdateTime": 1708485408886,
    "totalDuration": 0,
    "privacy": 0,
    "playCount": 36226388,
    "createTime": 1591863213389,
    "ordered": true,
    "description": "云音乐用户一周内收听所有摇滚歌曲官方TOP排行榜，每周五更新。",
    "status": 0,
    "tags": [],
    "userId": 1,
    "name": "云音乐摇滚榜",
    "id": 5059633707,
    "coverImgId_str": "109951167976981586"
  },
  {
    "subscribers": [],
    "subscribed": null,
    "creator": null,
    "artists": null,
    "tracks": null,
    "updateFrequency": "每周五更新",
    "backgroundCoverId": 0,
    "backgroundCoverUrl": null,
    "titleImage": 0,
    "coverText": null,
    "titleImageUrl": null,
    "coverImageUrl": null,
    "iconImageUrl": null,
    "englishTitle": null,
    "opRecommend": false,
    "recommendInfo": null,
    "socialPlaylistCover": null,
    "tsSongCount": 0,
    "cloudTrackCount": 0,
    "subscribedCount": 451669,
    "adType": 0,
    "trackNumberUpdateTime": 1708085580103,
    "highQuality": false,
    "specialType": 10,
    "coverImgId": 109951168539740980,
    "updateTime": 1708085580162,
    "anonimous": false,
    "newImported": false,
    "trackCount": 50,
    "coverImgUrl": "https://p1.music.126.net/kTJC5OBhg8I477X_ZmXyDQ==/109951168539740982.jpg",
    "commentThreadId": "A_PL_0_5059642708",
    "trackUpdateTime": 1708085580161,
    "totalDuration": 0,
    "privacy": 0,
    "playCount": 139752192,
    "createTime": 1591863258438,
    "ordered": true,
    "description": "云音乐用户一周内收听所有国风歌曲官方TOP排行榜，每周五更新。",
    "status": 0,
    "tags": [],
    "userId": 1,
    "name": "云音乐国风榜",
    "id": 5059642708,
    "coverImgId_str": "109951168539740982"
  },
  {
    "subscribers": [],
    "subscribed": null,
    "creator": null,
    "artists": null,
    "tracks": null,
    "updateFrequency": "每周一更新",
    "backgroundCoverId": 0,
    "backgroundCoverUrl": null,
    "titleImage": 0,
    "coverText": null,
    "titleImageUrl": null,
    "coverImageUrl": null,
    "iconImageUrl": null,
    "englishTitle": null,
    "opRecommend": false,
    "recommendInfo": null,
    "socialPlaylistCover": null,
    "tsSongCount": 0,
    "cloudTrackCount": 0,
    "subscribedCount": 31360,
    "adType": 0,
    "trackNumberUpdateTime": 1707376056635,
    "highQuality": false,
    "specialType": 10,
    "coverImgId": 109951165498334720,
    "updateTime": 1707376111860,
    "anonimous": false,
    "newImported": false,
    "trackCount": 200,
    "coverImgUrl": "https://p1.music.126.net/Mi4QPklg1mtbWAfq74tEqQ==/109951165498334721.jpg",
    "commentThreadId": "A_PL_0_5338990334",
    "trackUpdateTime": 1707920435881,
    "totalDuration": 0,
    "privacy": 0,
    "playCount": 11588854,
    "createTime": 1605594274077,
    "ordered": true,
    "description": "全民一起赏音PICK好歌，每周一更新",
    "status": 0,
    "tags": [
      "流行",
      "榜单"
    ],
    "userId": 3265840429,
    "name": "潜力爆款榜",
    "id": 5338990334,
    "coverImgId_str": "109951165498334721"
  },
  {
    "subscribers": [],
    "subscribed": null,
    "creator": null,
    "artists": null,
    "tracks": null,
    "updateFrequency": "每周五更新",
    "backgroundCoverId": 0,
    "backgroundCoverUrl": null,
    "titleImage": 0,
    "coverText": null,
    "titleImageUrl": null,
    "coverImageUrl": null,
    "iconImageUrl": null,
    "englishTitle": null,
    "opRecommend": false,
    "recommendInfo": null,
    "socialPlaylistCover": null,
    "tsSongCount": 0,
    "cloudTrackCount": 0,
    "subscribedCount": 553581,
    "adType": 0,
    "trackNumberUpdateTime": 1708085542579,
    "highQuality": false,
    "specialType": 10,
    "coverImgId": 109951167976973420,
    "updateTime": 1708085542655,
    "anonimous": false,
    "newImported": false,
    "trackCount": 50,
    "coverImgUrl": "https://p1.music.126.net/tC07mYGr0t2xz07xoHQhrQ==/109951167976973429.jpg",
    "commentThreadId": "A_PL_0_5059661515",
    "trackUpdateTime": 1708359190987,
    "totalDuration": 0,
    "privacy": 0,
    "playCount": 202443376,
    "createTime": 1591863052757,
    "ordered": true,
    "description": "云音乐用户一周内收听所有民谣歌曲官方TOP排行榜，每周五更新。",
    "status": 0,
    "tags": [],
    "userId": 1,
    "name": "云音乐民谣榜",
    "id": 5059661515,
    "coverImgId_str": "109951167976973429"
  },
  {
    "subscribers": [],
    "subscribed": null,
    "creator": null,
    "artists": null,
    "tracks": null,
    "updateFrequency": "每周四更新",
    "backgroundCoverId": 0,
    "backgroundCoverUrl": null,
    "titleImage": 0,
    "coverText": null,
    "titleImageUrl": null,
    "coverImageUrl": null,
    "iconImageUrl": null,
    "englishTitle": null,
    "opRecommend": false,
    "recommendInfo": null,
    "socialPlaylistCover": null,
    "tsSongCount": 0,
    "cloudTrackCount": 0,
    "subscribedCount": 42593,
    "adType": 0,
    "trackNumberUpdateTime": 1708011003838,
    "highQuality": false,
    "specialType": 10,
    "coverImgId": 109951167430857710,
    "updateTime": 1708011003984,
    "anonimous": false,
    "newImported": false,
    "trackCount": 49,
    "coverImgUrl": "https://p1.music.126.net/wJVUAiUuykKk7yGbQxDBug==/109951167430857712.jpg",
    "commentThreadId": "A_PL_0_6688069460",
    "trackUpdateTime": 1708497189397,
    "totalDuration": 0,
    "privacy": 0,
    "playCount": 26621066,
    "createTime": 1617180354803,
    "ordered": true,
    "description": "网易云音乐站内歌曲按用户“听歌识曲”次数排列，每周四更新",
    "status": 0,
    "tags": [],
    "userId": 1,
    "name": "听歌识曲榜",
    "id": 6688069460,
    "coverImgId_str": "109951167430857712"
  },
  {
    "subscribers": [],
    "subscribed": null,
    "creator": null,
    "artists": null,
    "tracks": null,
    "updateFrequency": "每周五更新",
    "backgroundCoverId": 0,
    "backgroundCoverUrl": null,
    "titleImage": 0,
    "coverText": null,
    "titleImageUrl": null,
    "coverImageUrl": null,
    "iconImageUrl": null,
    "englishTitle": null,
    "opRecommend": false,
    "recommendInfo": null,
    "socialPlaylistCover": null,
    "tsSongCount": 0,
    "cloudTrackCount": 0,
    "subscribedCount": 337523,
    "adType": 0,
    "trackNumberUpdateTime": 1708066806983,
    "highQuality": false,
    "specialType": 10,
    "coverImgId": 109951167430851790,
    "updateTime": 1708066807184,
    "anonimous": false,
    "newImported": false,
    "trackCount": 100,
    "coverImgUrl": "https://p1.music.126.net/iwhTcAbujlsvhSNWYkBC8Q==/109951167430851785.jpg",
    "commentThreadId": "A_PL_0_6723173524",
    "trackUpdateTime": 1708486270377,
    "totalDuration": 0,
    "privacy": 0,
    "playCount": 186892352,
    "createTime": 1619059306654,
    "ordered": true,
    "description": "网罗一周热门网络歌曲，反映云音乐用户近一周网络热歌收听趋势。每周五更新。",
    "status": 0,
    "tags": [],
    "userId": 1,
    "name": "网络热歌榜",
    "id": 6723173524,
    "coverImgId_str": "109951167430851785"
  },
  {
    "subscribers": [],
    "subscribed": null,
    "creator": null,
    "artists": null,
    "tracks": null,
    "updateFrequency": "每周四更新",
    "backgroundCoverId": 0,
    "backgroundCoverUrl": null,
    "titleImage": 0,
    "coverText": null,
    "titleImageUrl": null,
    "coverImageUrl": null,
    "iconImageUrl": null,
    "englishTitle": null,
    "opRecommend": false,
    "recommendInfo": null,
    "socialPlaylistCover": null,
    "tsSongCount": 0,
    "cloudTrackCount": 0,
    "subscribedCount": 21600,
    "adType": 0,
    "trackNumberUpdateTime": 1707971777654,
    "highQuality": false,
    "specialType": 10,
    "coverImgId": 109951167430852700,
    "updateTime": 1707971777768,
    "anonimous": false,
    "newImported": false,
    "trackCount": 50,
    "coverImgUrl": "https://p1.music.126.net/HbJ0BK5doY4I4pEMY6-FQw==/109951167430852698.jpg",
    "commentThreadId": "A_PL_0_6732051320",
    "trackUpdateTime": 1707971777762,
    "totalDuration": 0,
    "privacy": 0,
    "playCount": 6912935,
    "createTime": 1619582712108,
    "ordered": true,
    "description": "网易云音乐用户一周内收听所有俄罗斯语歌曲官方TOP排行榜，每周四更新。",
    "status": 0,
    "tags": [],
    "userId": 1,
    "name": "俄语榜",
    "id": 6732051320,
    "coverImgId_str": "109951167430852698"
  },
  {
    "subscribers": [],
    "subscribed": null,
    "creator": null,
    "artists": null,
    "tracks": null,
    "updateFrequency": "每周四更新",
    "backgroundCoverId": 0,
    "backgroundCoverUrl": null,
    "titleImage": 0,
    "coverText": null,
    "titleImageUrl": null,
    "coverImageUrl": null,
    "iconImageUrl": null,
    "englishTitle": null,
    "opRecommend": false,
    "recommendInfo": null,
    "socialPlaylistCover": null,
    "tsSongCount": 0,
    "cloudTrackCount": 0,
    "subscribedCount": 16876,
    "adType": 0,
    "trackNumberUpdateTime": 1707971843646,
    "highQuality": false,
    "specialType": 10,
    "coverImgId": 109951167430857040,
    "updateTime": 1707971843758,
    "anonimous": false,
    "newImported": false,
    "trackCount": 50,
    "coverImgUrl": "https://p1.music.126.net/N-Y5maLGWgrowt3TE6RtSg==/109951167430857045.jpg",
    "commentThreadId": "A_PL_0_6732014811",
    "trackUpdateTime": 1707971843756,
    "totalDuration": 0,
    "privacy": 0,
    "playCount": 8429715,
    "createTime": 1619582749349,
    "ordered": true,
    "description": "网易云音乐用户一周内收听所有越南语歌曲官方TOP排行榜，每周四更新。",
    "status": 0,
    "tags": [],
    "userId": 1,
    "name": "越南语榜",
    "id": 6732014811,
    "coverImgId_str": "109951167430857045"
  },
  {
    "subscribers": [],
    "subscribed": null,
    "creator": null,
    "artists": null,
    "tracks": null,
    "updateFrequency": "刚刚更新",
    "backgroundCoverId": 0,
    "backgroundCoverUrl": null,
    "titleImage": 0,
    "coverText": null,
    "titleImageUrl": null,
    "coverImageUrl": null,
    "iconImageUrl": null,
    "englishTitle": null,
    "opRecommend": false,
    "recommendInfo": null,
    "socialPlaylistCover": null,
    "tsSongCount": 0,
    "cloudTrackCount": 0,
    "subscribedCount": 215046,
    "adType": 0,
    "trackNumberUpdateTime": 1708228831477,
    "highQuality": false,
    "specialType": 10,
    "coverImgId": 109951167977358690,
    "updateTime": 1708488031238,
    "anonimous": false,
    "newImported": false,
    "trackCount": 50,
    "coverImgUrl": "https://p1.music.126.net/w_01BfDU012ojxnzLO6tYw==/109951167977358686.jpg",
    "commentThreadId": "A_PL_0_6886768100",
    "trackUpdateTime": 1708488031229,
    "totalDuration": 0,
    "privacy": 0,
    "playCount": 68191032,
    "createTime": 1627466999260,
    "ordered": true,
    "description": null,
    "status": 0,
    "tags": [],
    "userId": 4002134943,
    "name": "中文DJ榜",
    "id": 6886768100,
    "coverImgId_str": "109951167977358686"
  },
  {
    "subscribers": [],
    "subscribed": null,
    "creator": null,
    "artists": null,
    "tracks": null,
    "updateFrequency": "每周五更新",
    "backgroundCoverId": 0,
    "backgroundCoverUrl": null,
    "titleImage": 0,
    "coverText": null,
    "titleImageUrl": null,
    "coverImageUrl": null,
    "iconImageUrl": null,
    "englishTitle": null,
    "opRecommend": false,
    "recommendInfo": null,
    "socialPlaylistCover": null,
    "tsSongCount": 0,
    "cloudTrackCount": 0,
    "subscribedCount": 6881,
    "adType": 0,
    "trackNumberUpdateTime": 1699590173351,
    "highQuality": false,
    "specialType": 10,
    "coverImgId": 109951166327316580,
    "updateTime": 1699590173474,
    "anonimous": false,
    "newImported": false,
    "trackCount": 77,
    "coverImgUrl": "https://p1.music.126.net/KLVO8PxVZzOoLdWQQNyprA==/109951166327316568.jpg",
    "commentThreadId": "A_PL_0_6939992364",
    "trackUpdateTime": 1707751537436,
    "totalDuration": 0,
    "privacy": 0,
    "playCount": 3500051,
    "createTime": 1630035002268,
    "ordered": true,
    "description": "top hit榜根据俄罗斯及全球400多个无线广播的音乐播放量和YouTube播放量计算得来，每周一更新。",
    "status": 0,
    "tags": [],
    "userId": 6790397,
    "name": "俄罗斯top hit流行音乐榜",
    "id": 6939992364,
    "coverImgId_str": "109951166327316568"
  },
  {
    "subscribers": [],
    "subscribed": null,
    "creator": null,
    "artists": null,
    "tracks": null,
    "updateFrequency": "每周四更新",
    "backgroundCoverId": 0,
    "backgroundCoverUrl": null,
    "titleImage": 0,
    "coverText": null,
    "titleImageUrl": null,
    "coverImageUrl": null,
    "iconImageUrl": null,
    "englishTitle": null,
    "opRecommend": false,
    "recommendInfo": null,
    "socialPlaylistCover": null,
    "tsSongCount": 0,
    "cloudTrackCount": 0,
    "subscribedCount": 11171,
    "adType": 0,
    "trackNumberUpdateTime": 1707998402396,
    "highQuality": false,
    "specialType": 10,
    "coverImgId": 109951167430843280,
    "updateTime": 1707998402481,
    "anonimous": false,
    "newImported": false,
    "trackCount": 50,
    "coverImgUrl": "https://p1.music.126.net/4W0WBHBgwYlYfRniuyL47A==/109951167430843284.jpg",
    "commentThreadId": "A_PL_0_7095271308",
    "trackUpdateTime": 1708497509346,
    "totalDuration": 0,
    "privacy": 0,
    "playCount": 5066713,
    "createTime": 1638166937809,
    "ordered": true,
    "description": "网易云音乐用户一周内收听所有泰语歌曲官方TOP排行榜，每周四更新。",
    "status": 0,
    "tags": [
      "小语种"
    ],
    "userId": 1,
    "name": "泰语榜",
    "id": 7095271308,
    "coverImgId_str": "109951167430843284"
  },
  {
    "subscribers": [],
    "subscribed": null,
    "creator": null,
    "artists": null,
    "tracks": null,
    "updateFrequency": "每周四更新",
    "backgroundCoverId": 0,
    "backgroundCoverUrl": null,
    "titleImage": 0,
    "coverText": null,
    "titleImageUrl": null,
    "coverImageUrl": null,
    "iconImageUrl": null,
    "englishTitle": null,
    "opRecommend": false,
    "recommendInfo": null,
    "socialPlaylistCover": null,
    "tsSongCount": 0,
    "cloudTrackCount": 0,
    "subscribedCount": 19769,
    "adType": 0,
    "trackNumberUpdateTime": 1707990264116,
    "highQuality": false,
    "specialType": 10,
    "coverImgId": 109951167977014960,
    "updateTime": 1707990441564,
    "anonimous": false,
    "newImported": false,
    "trackCount": 100,
    "coverImgUrl": "https://p1.music.126.net/yhzlQJCJ9NcT4MvJBG_HgQ==/109951167977014958.jpg",
    "commentThreadId": "A_PL_0_7356827205",
    "trackUpdateTime": 1708270982937,
    "totalDuration": 0,
    "privacy": 0,
    "playCount": 4516832,
    "createTime": 1648553998273,
    "ordered": true,
    "description": "嘿~朋友，欢迎来到本周的Beat排行榜\n我们挑选了近一周内热门的Beat作品，一起来感受下大家近期的“口味”吧！\n每周都会更新哦，记得按下收藏，我每天都会在这里等你来与我交流！~\n\n关于Beat的必备小知识\nQ1.什么是Beat？\nBeat即节拍，特指嘻哈音乐中的伴奏，现在也可指所有流行音乐的伴奏\nQ2.Beat有什么用？\n在Beat的帮助下，你只需要填词演唱即可完成一首歌曲的创作，而且Beat也可以作为各种流媒体的背景音乐或是多场景现场演出的得力助手，不同风格的Beat还能为你的音乐创作提供灵感哦~\n搜索关注“BEATSOUL激灵”网易云官号，探索更多炸裂音乐内容～",
    "status": 0,
    "tags": [],
    "userId": 6407802177,
    "name": "BEAT排行榜",
    "id": 7356827205,
    "coverImgId_str": "109951167977014958"
  },
  {
    "subscribers": [],
    "subscribed": null,
    "creator": null,
    "artists": null,
    "tracks": null,
    "updateFrequency": "每周五更新",
    "backgroundCoverId": 0,
    "backgroundCoverUrl": null,
    "titleImage": 0,
    "coverText": null,
    "titleImageUrl": null,
    "coverImageUrl": null,
    "iconImageUrl": null,
    "englishTitle": null,
    "opRecommend": false,
    "recommendInfo": null,
    "socialPlaylistCover": null,
    "tsSongCount": 0,
    "cloudTrackCount": 0,
    "subscribedCount": 28507,
    "adType": 0,
    "trackNumberUpdateTime": 1707320772907,
    "highQuality": false,
    "specialType": 10,
    "coverImgId": 109951169319832620,
    "updateTime": 1707321426371,
    "anonimous": false,
    "newImported": false,
    "trackCount": 10,
    "coverImgUrl": "https://p1.music.126.net/sQXEbgaAiRxc7ZbPkOZnLQ==/109951169319832625.jpg",
    "commentThreadId": "A_PL_0_7325478166",
    "trackUpdateTime": 1707929395606,
    "totalDuration": 0,
    "privacy": 0,
    "playCount": 12318006,
    "createTime": 1646796286440,
    "ordered": true,
    "description": "精心评审，专业推荐。每周五更新，为你呈现宝藏新歌。\n1、《Loneliness》 歌手：Pet Shop Boys\n2、《bliss》歌手：milet\n3、《Broken》歌手：Seori \n4、《南山南 (live)》歌手：陈楚生,张碧晨\n5、《玉美人（Remix feat. Dahl_）》歌手：chacha,Dahl_ \n6、《影子和孩子》歌手︰斯丹曼簇 \n7、《Shiver》歌手：The Libertines\n8、《谺する》歌手：菅田将暉\n9、《To be continued》歌手：Nancy Kwai\n10、《The Conflict Of The Mind》 歌手：AURORA \n本期封面：Pet Shop Boys",
    "status": 0,
    "tags": [
      "榜单"
    ],
    "userId": 9003,
    "name": "星云榜VOL.3  乐坛传奇Pet Shop Boys新单上线",
    "id": 7325478166,
    "coverImgId_str": "109951169319832625"
  },
  {
    "subscribers": [],
    "subscribed": null,
    "creator": null,
    "artists": null,
    "tracks": null,
    "updateFrequency": "每周二更新",
    "backgroundCoverId": 0,
    "backgroundCoverUrl": null,
    "titleImage": 0,
    "coverText": null,
    "titleImageUrl": null,
    "coverImageUrl": null,
    "iconImageUrl": null,
    "englishTitle": null,
    "opRecommend": false,
    "recommendInfo": null,
    "socialPlaylistCover": null,
    "tsSongCount": 0,
    "cloudTrackCount": 0,
    "subscribedCount": 1691,
    "adType": 0,
    "trackNumberUpdateTime": 1707234557265,
    "highQuality": false,
    "specialType": 10,
    "coverImgId": 109951167977730460,
    "updateTime": 1707234557378,
    "anonimous": false,
    "newImported": false,
    "trackCount": 50,
    "coverImgUrl": "https://p1.music.126.net/u-RQC-LyY0aoeseRumJ14A==/109951167977730469.jpg",
    "commentThreadId": "A_PL_0_7603212484",
    "trackUpdateTime": 1708446663175,
    "totalDuration": 0,
    "privacy": 0,
    "playCount": 556906,
    "createTime": 1661219696017,
    "ordered": true,
    "description": "LOOK直播好歌共赏，专属你的声音聊愈场。榜单选取符合条件且近7日热度最高的前50首歌曲，每周二更新。",
    "status": 0,
    "tags": [],
    "userId": 6459374538,
    "name": "LOOK直播歌曲榜",
    "id": 7603212484,
    "coverImgId_str": "109951167977730469"
  },
  {
    "subscribers": [],
    "subscribed": null,
    "creator": null,
    "artists": null,
    "tracks": null,
    "updateFrequency": "更新95首",
    "backgroundCoverId": 0,
    "backgroundCoverUrl": null,
    "titleImage": 0,
    "coverText": null,
    "titleImageUrl": null,
    "coverImageUrl": null,
    "iconImageUrl": null,
    "englishTitle": null,
    "opRecommend": false,
    "recommendInfo": null,
    "socialPlaylistCover": null,
    "tsSongCount": 0,
    "cloudTrackCount": 0,
    "subscribedCount": 9381,
    "adType": 0,
    "trackNumberUpdateTime": 1708488040763,
    "highQuality": false,
    "specialType": 10,
    "coverImgId": 109951168178601970,
    "updateTime": 1708488041017,
    "anonimous": false,
    "newImported": false,
    "trackCount": 100,
    "coverImgUrl": "https://p1.music.126.net/m9hQzC-d5wefBipedNPaHg==/109951168178601971.jpg",
    "commentThreadId": "A_PL_0_7775163417",
    "trackUpdateTime": 1708488041012,
    "totalDuration": 0,
    "privacy": 0,
    "playCount": 3582621,
    "createTime": 1669617979380,
    "ordered": true,
    "description": "云音乐歌曲赏音榜，以让用户鉴赏到更多潜力好歌为目的，以用户对歌曲互动热度为核心，按照综合数据排名取前100名，每日更新",
    "status": 0,
    "tags": [],
    "userId": 3265840429,
    "name": "赏音榜",
    "id": 7775163417,
    "coverImgId_str": "109951168178601971"
  },
  {
    "subscribers": [],
    "subscribed": null,
    "creator": null,
    "artists": null,
    "tracks": null,
    "updateFrequency": "更新33首",
    "backgroundCoverId": 0,
    "backgroundCoverUrl": null,
    "titleImage": 0,
    "coverText": null,
    "titleImageUrl": null,
    "coverImageUrl": null,
    "iconImageUrl": null,
    "englishTitle": null,
    "opRecommend": false,
    "recommendInfo": null,
    "socialPlaylistCover": null,
    "tsSongCount": 0,
    "cloudTrackCount": 0,
    "subscribedCount": 14131,
    "adType": 0,
    "trackNumberUpdateTime": 1708488043511,
    "highQuality": false,
    "specialType": 10,
    "coverImgId": 109951168772698180,
    "updateTime": 1708488043628,
    "anonimous": false,
    "newImported": false,
    "trackCount": 50,
    "coverImgUrl": "https://p1.music.126.net/MoegUKHcUFRON8286NQZNg==/109951168772698178.jpg",
    "commentThreadId": "A_PL_0_7785123708",
    "trackUpdateTime": 1708488043629,
    "totalDuration": 0,
    "privacy": 0,
    "playCount": 5379219,
    "createTime": 1669978276103,
    "ordered": true,
    "description": "云音乐站内播放热度TOP50的7日内新晋会员歌曲，每日更新。\n更适合黑胶体质的新歌榜单来啦！\n耳机分你一只，新曲一起来听~\n成为尊贵黑胶，不错过每一首VIP新歌！",
    "status": 0,
    "tags": [
      "流行",
      "浪漫",
      "治愈"
    ],
    "userId": 1452176465,
    "name": "黑胶VIP新歌榜",
    "id": 7785123708,
    "coverImgId_str": "109951168772698178"
  },
  {
    "subscribers": [],
    "subscribed": null,
    "creator": null,
    "artists": null,
    "tracks": null,
    "updateFrequency": "刚刚更新",
    "backgroundCoverId": 0,
    "backgroundCoverUrl": null,
    "titleImage": 0,
    "coverText": null,
    "titleImageUrl": null,
    "coverImageUrl": null,
    "iconImageUrl": null,
    "englishTitle": null,
    "opRecommend": false,
    "recommendInfo": null,
    "socialPlaylistCover": null,
    "tsSongCount": 0,
    "cloudTrackCount": 0,
    "subscribedCount": 178783,
    "adType": 0,
    "trackNumberUpdateTime": 1708488041571,
    "highQuality": false,
    "specialType": 10,
    "coverImgId": 109951168772691180,
    "updateTime": 1708488041705,
    "anonimous": false,
    "newImported": false,
    "trackCount": 50,
    "coverImgUrl": "https://p1.music.126.net/soIVOd3IWXMsOkarF-h4iw==/109951168772691177.jpg",
    "commentThreadId": "A_PL_0_7785066739",
    "trackUpdateTime": 1708488041702,
    "totalDuration": 0,
    "privacy": 0,
    "playCount": 57875460,
    "createTime": 1669978291024,
    "ordered": true,
    "description": "云音乐站内播放和付费热度TOP50的会员歌曲，每日更新。\n更适合黑胶体质的热歌榜单来啦！\n哪首是你的单曲循环？\n成为尊贵黑胶，随心畅听热门好歌！",
    "status": 0,
    "tags": [
      "流行",
      "治愈",
      "放松"
    ],
    "userId": 1452176465,
    "name": "黑胶VIP热歌榜",
    "id": 7785066739,
    "coverImgId_str": "109951168772691177"
  },
  {
    "subscribers": [],
    "subscribed": null,
    "creator": null,
    "artists": null,
    "tracks": null,
    "updateFrequency": "更新42首",
    "backgroundCoverId": 0,
    "backgroundCoverUrl": null,
    "titleImage": 0,
    "coverText": null,
    "titleImageUrl": null,
    "coverImageUrl": null,
    "iconImageUrl": null,
    "englishTitle": null,
    "opRecommend": false,
    "recommendInfo": null,
    "socialPlaylistCover": null,
    "tsSongCount": 0,
    "cloudTrackCount": 0,
    "subscribedCount": 8715,
    "adType": 0,
    "trackNumberUpdateTime": 1708488048134,
    "highQuality": false,
    "specialType": 10,
    "coverImgId": 109951168772689340,
    "updateTime": 1708488048341,
    "anonimous": false,
    "newImported": false,
    "trackCount": 50,
    "coverImgUrl": "https://p1.music.126.net/hB_5lBhL195vIh7rBCHKQg==/109951168772689339.jpg",
    "commentThreadId": "A_PL_0_7785091694",
    "trackUpdateTime": 1708495248377,
    "totalDuration": 0,
    "privacy": 0,
    "playCount": 4401984,
    "createTime": 1669978303210,
    "ordered": true,
    "description": "云音乐站内会员搜索播放热度TOP50的歌曲，每日更新。\n更适合黑胶体质的搜歌榜单来啦！\n热搜好歌一网打尽，只为有品位的你~\n成为尊贵黑胶，你搜我听畅听不停！",
    "status": 0,
    "tags": [
      "流行",
      "治愈",
      "快乐"
    ],
    "userId": 1452176465,
    "name": "黑胶VIP爱搜榜",
    "id": 7785091694,
    "coverImgId_str": "109951168772689339"
  },
  {
    "subscribers": [],
    "subscribed": null,
    "creator": null,
    "artists": null,
    "tracks": null,
    "updateFrequency": "刚刚更新",
    "backgroundCoverId": 0,
    "backgroundCoverUrl": null,
    "titleImage": 0,
    "coverText": null,
    "titleImageUrl": null,
    "coverImageUrl": null,
    "iconImageUrl": null,
    "englishTitle": null,
    "opRecommend": false,
    "recommendInfo": null,
    "socialPlaylistCover": null,
    "tsSongCount": 0,
    "cloudTrackCount": 0,
    "subscribedCount": 1949,
    "adType": 0,
    "trackNumberUpdateTime": 1708496701604,
    "highQuality": false,
    "specialType": 10,
    "coverImgId": 109951168673982480,
    "updateTime": 1708496701824,
    "anonimous": false,
    "newImported": false,
    "trackCount": 100,
    "coverImgUrl": "https://p2.music.126.net/U7ZbdpWzRdmZVr6Khn_4ag==/109951168673982478.jpg",
    "commentThreadId": "A_PL_0_8246775932",
    "trackUpdateTime": 1708496846877,
    "totalDuration": 0,
    "privacy": 0,
    "playCount": 557263,
    "createTime": 1679279999154,
    "ordered": true,
    "description": "每天9-23点为你精选当下歌曲热度最高的歌曲",
    "status": 0,
    "tags": [],
    "userId": 3265840429,
    "name": "实时热度榜",
    "id": 8246775932,
    "coverImgId_str": "109951168673982478"
  },
  {
    "subscribers": [],
    "subscribed": null,
    "creator": null,
    "artists": null,
    "tracks": null,
    "updateFrequency": "每周一更新",
    "backgroundCoverId": 0,
    "backgroundCoverUrl": null,
    "titleImage": 0,
    "coverText": null,
    "titleImageUrl": null,
    "coverImageUrl": null,
    "iconImageUrl": null,
    "englishTitle": null,
    "opRecommend": false,
    "recommendInfo": null,
    "socialPlaylistCover": null,
    "tsSongCount": 0,
    "cloudTrackCount": 0,
    "subscribedCount": 1112,
    "adType": 0,
    "trackNumberUpdateTime": 1708315248170,
    "highQuality": false,
    "specialType": 10,
    "coverImgId": 109951168730309120,
    "updateTime": 1708315248265,
    "anonimous": false,
    "newImported": false,
    "trackCount": 20,
    "coverImgUrl": "https://p2.music.126.net/HVu2hGYvzN5XBuvFc_4Bgg==/109951168730309120.jpg",
    "commentThreadId": "A_PL_0_8537588450",
    "trackUpdateTime": 1708315248259,
    "totalDuration": 0,
    "privacy": 0,
    "playCount": 7825215,
    "createTime": 1688698119437,
    "ordered": true,
    "description": "乐无界，越未来！《星电音联盟》歌曲官方榜单，每周一更新，让云村村民们随时随地躁起高燃派对氛围！喜力®星电音构建狂欢永不停歇的新奇电音宇宙，激活潮流基因，释放先锋灵感，跨维开启奇妙电音之旅！",
    "status": 0,
    "tags": [
      "榜单"
    ],
    "userId": 1,
    "name": "喜力®星电音派对潮音榜",
    "id": 8537588450,
    "coverImgId_str": "109951168730309120"
  },
  {
    "subscribers": [],
    "subscribed": null,
    "creator": null,
    "artists": null,
    "tracks": null,
    "updateFrequency": "每周一更新",
    "backgroundCoverId": 0,
    "backgroundCoverUrl": null,
    "titleImage": 0,
    "coverText": null,
    "titleImageUrl": null,
    "coverImageUrl": null,
    "iconImageUrl": null,
    "englishTitle": null,
    "opRecommend": false,
    "recommendInfo": null,
    "socialPlaylistCover": null,
    "tsSongCount": 0,
    "cloudTrackCount": 0,
    "subscribedCount": 12201,
    "adType": 0,
    "trackNumberUpdateTime": 1701057941016,
    "highQuality": false,
    "specialType": 10,
    "coverImgId": 109951168864907820,
    "updateTime": 1708315248408,
    "anonimous": false,
    "newImported": false,
    "trackCount": 20,
    "coverImgUrl": "https://p2.music.126.net/RlStCmE97y0xYFk7rS3Zww==/109951168864907822.jpg",
    "commentThreadId": "A_PL_0_8661209031",
    "trackUpdateTime": 1708315248403,
    "totalDuration": 0,
    "privacy": 0,
    "playCount": 3392473,
    "createTime": 1692179247425,
    "ordered": true,
    "description": "听乐夏，上网易云，一头扎进爱音乐的人群！ 综艺《乐队的夏天3》官方榜单，每周一更新。和三星折叠屏手机一起畅听《乐队的夏天3》官方榜单，折叠看三星，五代更来劲。",
    "status": 0,
    "tags": [],
    "userId": 1,
    "name": "乐夏榜",
    "id": 8661209031,
    "coverImgId_str": "109951168864907822"
  },
  {
    "subscribers": [],
    "subscribed": null,
    "creator": null,
    "artists": null,
    "tracks": null,
    "updateFrequency": "每周一更新",
    "backgroundCoverId": 0,
    "backgroundCoverUrl": null,
    "titleImage": 0,
    "coverText": null,
    "titleImageUrl": null,
    "coverImageUrl": null,
    "iconImageUrl": null,
    "englishTitle": null,
    "opRecommend": false,
    "recommendInfo": null,
    "socialPlaylistCover": null,
    "tsSongCount": 0,
    "cloudTrackCount": 0,
    "subscribedCount": 14011,
    "adType": 0,
    "trackNumberUpdateTime": 1708329605209,
    "highQuality": false,
    "specialType": 10,
    "coverImgId": 109951168924385360,
    "updateTime": 1708329605363,
    "anonimous": false,
    "newImported": false,
    "trackCount": 100,
    "coverImgUrl": "https://p2.music.126.net/UL8dhobSa3TR6Wd1JmWe_g==/109951168924385363.jpg",
    "commentThreadId": "A_PL_0_8703179781",
    "trackUpdateTime": 1708398005835,
    "totalDuration": 0,
    "privacy": 0,
    "playCount": 309395,
    "createTime": 1693456199735,
    "ordered": true,
    "description": null,
    "status": 0,
    "tags": [],
    "userId": 7943333146,
    "name": "特斯拉车友爱听榜",
    "id": 8703179781,
    "coverImgId_str": "109951168924385363"
  },
  {
    "subscribers": [],
    "subscribed": null,
    "creator": null,
    "artists": null,
    "tracks": null,
    "updateFrequency": "每周一更新",
    "backgroundCoverId": 0,
    "backgroundCoverUrl": null,
    "titleImage": 0,
    "coverText": null,
    "titleImageUrl": null,
    "coverImageUrl": null,
    "iconImageUrl": null,
    "englishTitle": null,
    "opRecommend": false,
    "recommendInfo": null,
    "socialPlaylistCover": null,
    "tsSongCount": 0,
    "cloudTrackCount": 0,
    "subscribedCount": 3582,
    "adType": 0,
    "trackNumberUpdateTime": 1708329605557,
    "highQuality": false,
    "specialType": 10,
    "coverImgId": 109951168928365500,
    "updateTime": 1708329605700,
    "anonimous": false,
    "newImported": false,
    "trackCount": 100,
    "coverImgUrl": "https://p2.music.126.net/U--PWdWupY1ER5cVSjr1jQ==/109951168928365496.jpg",
    "commentThreadId": "A_PL_0_8703052295",
    "trackUpdateTime": 1708398006399,
    "totalDuration": 0,
    "privacy": 0,
    "playCount": 123461,
    "createTime": 1693456709598,
    "ordered": true,
    "description": null,
    "status": 0,
    "tags": [],
    "userId": 7943333146,
    "name": "理想车友爱听榜",
    "id": 8703052295,
    "coverImgId_str": "109951168928365496"
  },
  {
    "subscribers": [],
    "subscribed": null,
    "creator": null,
    "artists": null,
    "tracks": null,
    "updateFrequency": "每周一更新",
    "backgroundCoverId": 0,
    "backgroundCoverUrl": null,
    "titleImage": 0,
    "coverText": null,
    "titleImageUrl": null,
    "coverImageUrl": null,
    "iconImageUrl": null,
    "englishTitle": null,
    "opRecommend": false,
    "recommendInfo": null,
    "socialPlaylistCover": null,
    "tsSongCount": 0,
    "cloudTrackCount": 0,
    "subscribedCount": 907,
    "adType": 0,
    "trackNumberUpdateTime": 1708329604838,
    "highQuality": false,
    "specialType": 10,
    "coverImgId": 109951168924393580,
    "updateTime": 1708329605045,
    "anonimous": false,
    "newImported": false,
    "trackCount": 100,
    "coverImgUrl": "https://p2.music.126.net/S1OG-OLTaofa3HfrHW48kA==/109951168924393585.jpg",
    "commentThreadId": "A_PL_0_8702582160",
    "trackUpdateTime": 1708329605021,
    "totalDuration": 0,
    "privacy": 0,
    "playCount": 353890,
    "createTime": 1693456722262,
    "ordered": true,
    "description": null,
    "status": 0,
    "tags": [],
    "userId": 7943333146,
    "name": "比亚迪车友爱听榜",
    "id": 8702582160,
    "coverImgId_str": "109951168924393585"
  },
  {
    "subscribers": [],
    "subscribed": null,
    "creator": null,
    "artists": null,
    "tracks": null,
    "updateFrequency": "每周一更新",
    "backgroundCoverId": 0,
    "backgroundCoverUrl": null,
    "titleImage": 0,
    "coverText": null,
    "titleImageUrl": null,
    "coverImageUrl": null,
    "iconImageUrl": null,
    "englishTitle": null,
    "opRecommend": false,
    "recommendInfo": null,
    "socialPlaylistCover": null,
    "tsSongCount": 0,
    "cloudTrackCount": 0,
    "subscribedCount": 424,
    "adType": 0,
    "trackNumberUpdateTime": 1708329602595,
    "highQuality": false,
    "specialType": 10,
    "coverImgId": 109951168924380980,
    "updateTime": 1708329602812,
    "anonimous": false,
    "newImported": false,
    "trackCount": 100,
    "coverImgUrl": "https://p2.music.126.net/r9kBQNsOro1EAB82Ol51WQ==/109951168924380971.jpg",
    "commentThreadId": "A_PL_0_8703220480",
    "trackUpdateTime": 1708398739811,
    "totalDuration": 0,
    "privacy": 0,
    "playCount": 52301,
    "createTime": 1693456736086,
    "ordered": true,
    "description": null,
    "status": 0,
    "tags": [],
    "userId": 7943333146,
    "name": "蔚来车友爱听榜",
    "id": 8703220480,
    "coverImgId_str": "109951168924380971"
  },
  {
    "subscribers": [],
    "subscribed": null,
    "creator": null,
    "artists": null,
    "tracks": null,
    "updateFrequency": "每周一更新",
    "backgroundCoverId": 0,
    "backgroundCoverUrl": null,
    "titleImage": 0,
    "coverText": null,
    "titleImageUrl": null,
    "coverImageUrl": null,
    "iconImageUrl": null,
    "englishTitle": null,
    "opRecommend": false,
    "recommendInfo": null,
    "socialPlaylistCover": null,
    "tsSongCount": 0,
    "cloudTrackCount": 0,
    "subscribedCount": 254,
    "adType": 0,
    "trackNumberUpdateTime": 1708329603647,
    "highQuality": false,
    "specialType": 10,
    "coverImgId": 109951168924393520,
    "updateTime": 1708329603810,
    "anonimous": false,
    "newImported": false,
    "trackCount": 100,
    "coverImgUrl": "https://p2.music.126.net/a7y6b52W8BDxAw4jM5gR8w==/109951168924393521.jpg",
    "commentThreadId": "A_PL_0_8702982389",
    "trackUpdateTime": 1708329603807,
    "totalDuration": 0,
    "privacy": 0,
    "playCount": 22052,
    "createTime": 1693456747865,
    "ordered": true,
    "description": null,
    "status": 0,
    "tags": [],
    "userId": 7943333146,
    "name": "埃安车友爱听榜",
    "id": 8702982389,
    "coverImgId_str": "109951168924393521"
  },
  {
    "subscribers": [],
    "subscribed": null,
    "creator": null,
    "artists": null,
    "tracks": null,
    "updateFrequency": "每周一更新",
    "backgroundCoverId": 0,
    "backgroundCoverUrl": null,
    "titleImage": 0,
    "coverText": null,
    "titleImageUrl": null,
    "coverImageUrl": null,
    "iconImageUrl": null,
    "englishTitle": null,
    "opRecommend": false,
    "recommendInfo": null,
    "socialPlaylistCover": null,
    "tsSongCount": 0,
    "cloudTrackCount": 0,
    "subscribedCount": 639,
    "adType": 0,
    "trackNumberUpdateTime": 1708329604501,
    "highQuality": false,
    "specialType": 10,
    "coverImgId": 109951168924391600,
    "updateTime": 1708329604664,
    "anonimous": false,
    "newImported": false,
    "trackCount": 100,
    "coverImgUrl": "https://p2.music.126.net/Cu0RXoKewSPM9Gyc7Cp8jw==/109951168924391596.jpg",
    "commentThreadId": "A_PL_0_8702982391",
    "trackUpdateTime": 1708329604664,
    "totalDuration": 0,
    "privacy": 0,
    "playCount": 100697,
    "createTime": 1693456759762,
    "ordered": true,
    "description": null,
    "status": 0,
    "tags": [],
    "userId": 7943333146,
    "name": "极氪车友爱听榜",
    "id": 8702982391,
    "coverImgId_str": "109951168924391596"
  },
  {
    "subscribers": [],
    "subscribed": null,
    "creator": null,
    "artists": null,
    "tracks": null,
    "updateFrequency": "每周五更新",
    "backgroundCoverId": 0,
    "backgroundCoverUrl": null,
    "titleImage": 0,
    "coverText": null,
    "titleImageUrl": null,
    "coverImageUrl": null,
    "iconImageUrl": null,
    "englishTitle": null,
    "opRecommend": false,
    "recommendInfo": null,
    "socialPlaylistCover": null,
    "tsSongCount": 0,
    "cloudTrackCount": 0,
    "subscribedCount": 7736,
    "adType": 0,
    "trackNumberUpdateTime": 1708056051889,
    "highQuality": false,
    "specialType": 10,
    "coverImgId": 109951168717283900,
    "updateTime": 1708056052019,
    "anonimous": false,
    "newImported": false,
    "trackCount": 50,
    "coverImgUrl": "https://p2.music.126.net/TMb0be5QLMZKOFeuOKT4tg==/109951168717283910.jpg",
    "commentThreadId": "A_PL_0_8532443277",
    "trackUpdateTime": 1708326578796,
    "totalDuration": 0,
    "privacy": 0,
    "playCount": 1398550,
    "createTime": 1688524324879,
    "ordered": true,
    "description": "来自蛋仔岛的热播歌曲速递，网易《蛋仔派对》官方榜单，每周五更新。云村村民们，和蛋仔们一起随歌摇摆吧！",
    "status": 0,
    "tags": [],
    "userId": 7861591973,
    "name": "蛋仔派对听歌榜",
    "id": 8532443277,
    "coverImgId_str": "109951168717283910"
  }
]